%YAML 1.1
%TAG !u! tag:unity3d.com,2011:
--- !u!162 &1
EditorUserSettings:
  m_ObjectHideFlags: 0
  serializedVersion: 4
  m_ConfigSettings:
    RecentlyUsedSceneGuid-0:
      value: 01060700030d0b080c5c5d23127b0944124e407274707e332c7b4435b4b66c61
      flags: 0
    RecentlyUsedSceneGuid-1:
      value: 55020c0251010d0c0f0a5920427a0f44104f412e2e2b20617b784830b5e6636f
      flags: 0
    RecentlyUsedSceneGuid-2:
      value: 5000075f54040b02545c5d704025074417161a2b7c7d2562792f4d64e7b66d6d
      flags: 0
    RecentlyUsedSceneGuid-3:
      value: 5452065703545e095859092048220e44464e4d7c282e75622e7b4c30b5b56668
      flags: 0
    RecentlyUsedSceneGuid-4:
      value: 0507075f01020f5a0b590d2341715d441516402e752e7736297b1e6ae1e6646d
      flags: 0
    RecentlyUsedSceneGuid-5:
      value: 5308055053000b0c090b5c7544260e44434e4d7c792c70682b7c1f36e7b1313d
      flags: 0
    RecentlyUsedSceneGuid-6:
      value: 53020c0200570b590b5e5f7115745e44414f412f2f2b7468747e1c63b7e56c6f
      flags: 0
    RecentlyUsedSceneGuid-7:
      value: 5006515057065a0a080d09201527064414151b292a2976357d794c35bab7636a
      flags: 0
    RecentlyUsedSceneGuid-8:
      value: 5757030557030f0b0c0c0a23412106444f4e4079782b23607d2d1c32e6b96d6e
      flags: 0
    RecentlyUsedSceneGuid-9:
      value: 0507565e55040c0d5f0b547248760744104e4e2e2a7e23617e7d1e30bbe33060
      flags: 0
    vcSharedLogLevel:
      value: 0d5e400f0650
      flags: 0
  m_VCAutomaticAdd: 1
  m_VCDebugCom: 0
  m_VCDebugCmd: 0
  m_VCDebugOut: 0
  m_SemanticMergeMode: 2
  m_DesiredImportWorkerCount: 5
  m_StandbyImportWorkerCount: 2
  m_IdleImportWorkerShutdownDelay: 60000
  m_VCShowFailedCheckout: 1
  m_VCOverwriteFailedCheckoutAssets: 1
  m_VCProjectOverlayIcons: 1
  m_VCHierarchyOverlayIcons: 1
  m_VCOtherOverlayIcons: 1
  m_VCAllowAsyncUpdate: 1
  m_ArtifactGarbageCollection: 1
